Text Mining with Tidy Data Principles - Text Mining
…
library(tidytext)

text_df %>%
    unnest_tokens(word, text)
#> # A tibble: 41 × 2
#>     line word   
#>    <int> <chr>  
#>  1     1 tell   
#>  2     1 all    
#>  3     1 the    
#>  4     1 truth  
#>  5     1 but    
#>  6     1 tell   
#>  7     1 it     
#>  8     1 slant  
#>  9     2 success
#> 10     2 in     
#> # … with 31 more rows
…
What are the most common words?

What do you predict will happen if we run the following code? 🤔

tidy_book %>%
    count(word, sort = TRUE)

What are the most common words?

What do you predict will happen if we run the following code? 🤔

tidy_book %>%
    count(word, sort = TRUE)
#> # A tibble: 7,118 × 2
#>    word      n
#>    <chr> <int>
#>  1 the    4656
#>  2 to     4323
#>  3 of     3838
#>  4 and    3763
#>  5 her    2260
#>  6 i      2095
#>  7 a      2036
#>  8 in     1991
#>  9 was    1871
#> 10 she    1732
#> # … with 7,108 more rows

Stop words

Stop words

get_stopwords()
#> # A tibble: 175 × 2
#>    word      lexicon 
#>    <chr>     <chr>   
#>  1 i         snowball
#>  2 me        snowball
#>  3 my        snowball
#>  4 myself    snowball
#>  5 we        snowball
#>  6 our       snowball
#>  7 ours      snowball
#>  8 ourselves snowball
#>  9 you       snowball
#> 10 your      snowball
#> # … with 165 more rows

Stop words

get_stopwords(language = "es")
#> # A tibble: 308 × 2
#>    word  lexicon 
#>    <chr> <chr>   
#>  1 de    snowball
#>  2 la    snowball
#>  3 que   snowball
#>  4 el    snowball
#>  5 en    snowball
#>  6 y     snowball
#>  7 a     snowball
#>  8 los   snowball
#>  9 del   snowball
#> 10 se    snowball
#> # … with 298 more rows

Stop words

get_stopwords(language = "fr")
#> # A tibble: 164 × 2
#>    word  lexicon 
#>    <chr> <chr>   
#>  1 au    snowball
#>  2 aux   snowball
#>  3 avec  snowball
#>  4 ce    snowball
#>  5 ces   snowball
#>  6 dans  snowball
#>  7 de    snowball
#>  8 des   snowball
#>  9 du    snowball
#> 10 elle  snowball
#> # … with 154 more rows

Stop words

get_stopwords(source = "smart")
#> # A tibble: 571 × 2
#>    word        lexicon
#>    <chr>       <chr>  
#>  1 a           smart  
#>  2 a's         smart  
#>  3 able        smart  
#>  4 about       smart  
#>  5 above       smart  
#>  6 according   smart  
#>  7 accordingly smart  
#>  8 across      smart  
#>  9 actually    smart  
#> 10 after       smart  
#> # … with 561 more rows
…
SENTIMENT ANALYSIS 😄😢😠

Sentiment lexicons

get_sentiments("afinn")
#> # A tibble: 2,477 × 2
#>    word       value
#>    <chr>      <dbl>
#>  1 abandon       -2
#>  2 abandoned     -2
#>  3 abandons      -2
#>  4 abducted      -2
#>  5 abduction     -2
#>  6 abductions    -2
#>  7 abhor         -3
#>  8 abhorred      -3
#>  9 abhorrent     -3
#> 10 abhors        -3
#> # … with 2,467 more rows

Sentiment lexicons

get_sentiments("bing")
#> # A tibble: 6,786 × 2
#>    word        sentiment
#>    <chr>       <chr>    
#>  1 2-faces     negative 
#>  2 abnormal    negative 
#>  3 abolish     negative 
#>  4 abominable  negative 
#>  5 abominably  negative 
#>  6 abominate   negative 
#>  7 abomination negative 
#>  8 abort       negative 
#>  9 aborted     negative 
#> 10 aborts      negative 
#> # … with 6,776 more rows

Sentiment lexicons

get_sentiments("nrc")
#> # A tibble: 13,872 × 2
#>    word        sentiment
#>    <chr>       <chr>    
#>  1 abacus      trust    
#>  2 abandon     fear     
#>  3 abandon     negative 
#>  4 abandon     sadness  
#>  5 abandoned   anger    
#>  6 abandoned   fear     
#>  7 abandoned   negative 
#>  8 abandoned   sadness  
#>  9 abandonment anger    
#> 10 abandonment fear     
#> # … with 13,862 more rows

Sentiment lexicons

get_sentiments("loughran")
#> # A tibble: 4,150 × 2
#>    word         sentiment
#>    <chr>        <chr>    
#>  1 abandon      negative 
#>  2 abandoned    negative 
#>  3 abandoning   negative 
#>  4 abandonment  negative 
#>  5 abandonments negative 
#>  6 abandons     negative 
#>  7 abdicated    negative 
#>  8 abdicates    negative 
#>  9 abdicating   negative 
#> 10 abdication   negative 
#> # … with 4,140 more rows
…
What do you predict will happen if we run the following code? 🤔

tidy_book %>%
    inner_join(get_sentiments("bing")) %>%            
    count(sentiment, word, sort = TRUE) 

Implementing sentiment analysis

What do you predict will happen if we run the following code? 🤔

tidy_book %>%
    inner_join(get_sentiments("bing")) %>%            
    count(sentiment, word, sort = TRUE)   
#> # A tibble: 1,503 × 3
#>    sentiment word         n
#>    <chr>     <chr>    <int>
#>  1 negative  miss       315
#>  2 positive  well       230
#>  3 positive  good       208
#>  4 positive  great      148
#>  5 positive  enough     111
#>  6 positive  love       102
#>  7 positive  better      98
#>  8 positive  pleasure    94
#>  9 positive  like        89
#> 10 positive  happy       83
#> # … with 1,493 more rows
…
