Text Mining with Tidy Data Principles - Text Mining
…
Explore the topic model output

chapter_topics <- tidy(topic_model, matrix = "beta")
chapter_topics
#> # A tibble: 73,480 × 3
#>    topic term        beta
#>    <int> <chr>      <dbl>
#>  1     1 chapter 5.88e- 3
#>  2     2 chapter 2.11e- 3
#>  3     3 chapter 8.87e- 4
#>  4     4 chapter 6.80e- 4
#>  5     1 mr      2.82e- 2
#>  6     2 mr      2.23e- 4
#>  7     3 mr      1.96e- 2
#>  8     4 mr      9.58e- 4
#>  9     1 mrs     5.17e- 3
#> 10     2 mrs     3.90e-42
#> # … with 73,470 more rows
…
slice_max(beta, n = 10) %>%

Explore the topic model output

top_terms <- chapter_topics %>%
    group_by(topic) %>%
    slice_max(beta, n = 10) %>%
    ungroup() %>%
    arrange(topic, -beta)

Explore the topic model output

top_terms
#> # A tibble: 40 × 3
#>    topic term         beta
#>    <int> <chr>       <dbl>
#>  1     1 mr        0.0282 
#>  2     1 emma      0.0125 
#>  3     1 harriet   0.0115 
#>  4     1 good      0.0105 
#>  5     1 miss      0.00914
#>  6     1 thing     0.00787
#>  7     1 man       0.00764
#>  8     1 knightley 0.00696
#>  9     1 elton     0.00680
#> 10     1 dear      0.00633
#> # … with 30 more rows
…
Identify important words

⭐ FREX

⬆️ LIFT

High FREX words

High frequency and high exclusivity

tidy(topic_model, matrix = "frex")
#> # A tibble: 73,480 × 2
#>    topic term    
#>    <int> <chr>   
#>  1     1 charade 
#>  2     1 taylor  
#>  3     1 papa    
#>  4     1 isabella
#>  5     1 martin  
#>  6     1 children
#>  7     1 marry   
#>  8     1 pretty  
#>  9     1 likeness
#> 10     1 marriage
#> # … with 73,470 more rows

High lift words

Topic-word distribution divided by word count distribution

tidy(topic_model, matrix = "lift")
#> # A tibble: 73,480 × 2
#>    topic term       
#>    <int> <chr>      
#>  1     1 charade    
#>  2     1 monarch    
#>  3     1 hannah     
#>  4     1 hating     
#>  5     1 humours    
#>  6     1 militia    
#>  7     1 widower    
#>  8     1 likenesses 
#>  9     1 subjection 
#> 10     1 _courtship_
#> # … with 73,470 more rows
…
How are documents classified?

chapters_gamma <- tidy(topic_model, matrix = "gamma",
                       document_names = rownames(words_sparse))
chapters_gamma
#> # A tibble: 408 × 3
#>    document                                topic    gamma
#>    <chr>                                   <int>    <dbl>
#>  1 Emma_0                                      1 0.999   
#>  2 Emma_7                                      1 0.239   
#>  3 Emma_2                                      1 0.999   
#>  4 Emma_8                                      1 0.233   
#>  5 Emma_11                                     1 0.00103 
#>  6 Emma_6                                      1 0.999   
#>  7 Emma_21                                     1 0.000715
#>  8 Twenty Thousand Leagues under the Sea_0     1 0.000146
#>  9 Emma_20                                     1 0.000937
#> 10 Emma_19                                     1 0.000977
#> # … with 398 more rows
…
