Text Mining with Tidy Data Principles - Text Mining
…
titles <- c("The War of the Worlds",
            "Pride and Prejudice")

books <- gutenberg_works(title %in% titles) %>%
    gutenberg_download(meta_fields = "title", mirror = my_mirror) %>%
    mutate(title = str_replace_all(title, " ", "_")) %>%
    filter(nchar(text) > 3) %>%
    mutate(document = row_number())

Download your text data

books
#> # A tibble: 16,846 × 4
#>    gutenberg_id text                                               title docum…¹
#>           <int> <chr>                                              <chr>   <int>
#>  1           36 "cover "                                           The_…       1
#>  2           36 "The War of the Worlds"                            The_…       2
#>  3           36 "by H. G. Wells"                                   The_…       3
#>  4           36 "   ‘But who shall dwell in these worlds if they … The_…       4
#>  5           36 "    . . . Are we or they Lords of the World? . .… The_…       5
#>  6           36 "    how are all things made for man?’"            The_…       6
#>  7           36 "                    KEPLER (quoted in _The Anato… The_…       7
#>  8           36 "Contents"                                         The_…       8
#>  9           36 " BOOK ONE.—THE COMING OF THE MARTIANS"            The_…       9
#> 10           36 " I. THE EVE OF THE WAR."                          The_…      10
#> # … with 16,836 more rows, and abbreviated variable name ¹​document
SPEND YOUR DATA BUDGET 💰

Spend your data budget

set.seed(123)
book_split <- initial_split(books, strata = title)
book_split
#> <Training/Testing/Total>
#> <12633/4213/16846>

Spend your data budget

book_train <- training(book_split)
book_train
#> # A tibble: 12,633 × 4
#>    gutenberg_id text                                               title docum…¹
#>           <int> <chr>                                              <chr>   <int>
#>  1         1342 "                            [Illustration:"       Prid…    5310
#>  2         1342 "                             GEORGE ALLEN"        Prid…    5311
#>  3         1342 "                               PUBLISHER"         Prid…    5312
#>  4         1342 "                                LONDON"           Prid…    5314
#>  5         1342 "                             RUSKIN HOUSE"        Prid…    5315
#>  6         1342 "                                   ]"             Prid…    5316
#>  7         1342 "               _Reading Jane’s Letters._      _C… Prid…    5318
#>  8         1342 "                                PRIDE."           Prid…    5320
#>  9         1342 "                                  and"            Prid…    5321
#> 10         1342 "                               PREJUDICE"         Prid…    5322
#> # … with 12,623 more rows, and abbreviated variable name ¹​document

Spend your data budget

book_test <- testing(book_split)
book_test
#> # A tibble: 4,213 × 4
#>    gutenberg_id text                                               title docum…¹
#>           <int> <chr>                                              <chr>   <int>
#>  1           36 "    how are all things made for man?’"            The_…       6
#>  2           36 "Contents"                                         The_…       8
#>  3           36 " III. ON HORSELL COMMON."                         The_…      12
#>  4           36 " VI. THE HEAT-RAY IN THE CHOBHAM ROAD."           The_…      15
#>  5           36 " XV. WHAT HAD HAPPENED IN SURREY."                The_…      24
#>  6           36 " XVII. THE “THUNDER CHILD”."                      The_…      26
#>  7           36 " I. UNDER FOOT."                                  The_…      28
#>  8           36 " IX. WRECKAGE."                                   The_…      36
#>  9           36 "THE EVE OF THE WAR."                              The_…      40
#> 10           36 "the mental habits of those departed days. At mos… The_…      53
#> # … with 4,203 more rows, and abbreviated variable name ¹​document
…
book_final <- book_wf %>%
    finalize_workflow(simple_lasso) %>% 
    last_fit(book_split) 

collect_metrics(book_final)
#> # A tibble: 2 × 4
#>   .metric  .estimator .estimate .config             
#>   <chr>    <chr>          <dbl> <chr>               
#> 1 accuracy binary         0.838 Preprocessor1_Model1
#> 2 roc_auc  binary         0.910 Preprocessor1_Model1

Evaluate final model

collect_predictions(book_final)
#> # A tibble: 4,213 × 7
#>    id               .pred_Pride_and_Prejud…¹ .pred…²  .row .pred…³ title .config
#>    <chr>                               <dbl>   <dbl> <int> <fct>   <fct> <chr>  
#>  1 train/test split                   0.269    0.731     6 The_Wa… The_… Prepro…
#>  2 train/test split                   0.657    0.343     8 Pride_… The_… Prepro…
#>  3 train/test split                   0.111    0.889    12 The_Wa… The_… Prepro…
#>  4 train/test split                   0.0112   0.989    15 The_Wa… The_… Prepro…
#>  5 train/test split                   0.607    0.393    24 Pride_… The_… Prepro…
#>  6 train/test split                   0.657    0.343    26 Pride_… The_… Prepro…
#>  7 train/test split                   0.657    0.343    28 Pride_… The_… Prepro…
#>  8 train/test split                   0.657    0.343    36 Pride_… The_… Prepro…
#>  9 train/test split                   0.657    0.343    40 Pride_… The_… Prepro…
#> 10 train/test split                   0.0752   0.925    53 The_Wa… The_… Prepro…
#> # … with 4,203 more rows, and abbreviated variable names
#> #   ¹​.pred_Pride_and_Prejudice, ²​.pred_The_War_of_the_Worlds, ³​.pred_class
…
Is this the ROC curve for the training or testing data?

Training

Testing

Variable importance

library(vip)
book_vip <- 
    extract_fit_engine(book_final) %>%
    vi()

book_vip
#> # A tibble: 500 × 3
#>    Variable             Importance Sign 
#>    <chr>                     <dbl> <chr>
#>  1 tfidf_text_elizabeth      10.2  NEG  
#>  2 tfidf_text_mr              8.25 NEG  
#>  3 tfidf_text_bennet          7.73 NEG  
#>  4 tfidf_text_martians        7.45 POS  
#>  5 tfidf_text_jane            7.01 NEG  
#>  6 tfidf_text_bingley         6.92 NEG  
#>  7 tfidf_text_darcy           6.89 NEG  
#>  8 tfidf_text_wickham         6.44 NEG  
#>  9 tfidf_text_father          6.00 NEG  
#> 10 tfidf_text_longbourn       5.78 NEG  
#> # … with 490 more rows
…
