Text Mining
…
---

## **Understanding tf-idf**

Make a collection (*corpus*) for yourself! 💅

```r
full_collection
```

```
## # A tibble: 58,460 x 3
##    gutenberg_id text             title         
##           <int> <chr>            <chr>         
##  1          141 "MANSFIELD PARK" Mansfield Park
##  2          141 ""               Mansfield Park
##  3          141 "(1814)"         Mansfield Park
##  4          141 ""               Mansfield Park
##  5          141 ""               Mansfield Park
##  6          141 "By Jane Austen" Mansfield Park
##  7          141 ""               Mansfield Park
##  8          141 ""               Mansfield Park
##  9          141 ""               Mansfield Park
## 10          141 ""               Mansfield Park
## # … with 58,450 more rows
```
…
---

## **Calculating tf-idf**

That's... super exciting???

```r
book_tfidf
```

```
## # A tibble: 28,498 x 6
##    title               word      n     tf   idf tf_idf
##    <chr>               <chr> <int>  <dbl> <dbl>  <dbl>
##  1 Mansfield Park      the    6206 0.0387     0      0
##  2 Mansfield Park      to     5475 0.0341     0      0
##  3 Mansfield Park      and    5438 0.0339     0      0
##  4 Emma                to     5239 0.0325     0      0
##  5 Emma                the    5201 0.0323     0      0
##  6 Emma                and    4896 0.0304     0      0
##  7 Mansfield Park      of     4778 0.0298     0      0
##  8 Pride and Prejudice the    4331 0.0354     0      0
##  9 Emma                of     4291 0.0267     0      0
## 10 Pride and Prejudice to     4162 0.0340     0      0
## # … with 28,488 more rows
```
…
---

## **Calculating tf-idf**

What do you predict will happen if we run the following code? 🤔

```r
book_tfidf %>%
    arrange(-tf_idf)
```

```
## # A tibble: 28,498 x 6
##   title                 word          n      tf   idf  tf_idf
##   <chr>                 <chr>     <int>   <dbl> <dbl>   <dbl>
## 1 Sense and Sensibility elinor      622 0.00518 1.39  0.00718
## 2 Emma                  emma        786 0.00488 1.39  0.00677
## 3 Sense and Sensibility marianne    492 0.00410 1.39  0.00568
## 4 Mansfield Park        crawford    493 0.00307 1.39  0.00426
## 5 Pride and Prejudice   darcy       373 0.00305 1.39  0.00423
## 6 Mansfield Park        fanny       816 0.00509 0.693 0.00352
## 7 Pride and Prejudice   elizabeth   597 0.00488 0.693 0.00338
## 8 Emma                  weston      389 0.00242 1.39  0.00335
## # … with 28,490 more rows
```
…
tidy_ngram <- full_text %>%
*   unnest_tokens(bigram, text, token = "ngrams", n = 2) %>%
    filter(!is.na(bigram))
```

---

## **N-grams... and beyond!** 🚀

```r
tidy_ngram
```

```
## # A tibble: 147,313 x 2
##    gutenberg_id bigram            
##           <int> <chr>             
##  1          158 by jane           
##  2          158 jane austen       
##  3          158 volume i          
##  4          158 chapter i         
##  5          158 emma woodhouse    
##  6          158 woodhouse handsome
##  7          158 handsome clever   
##  8          158 clever and        
##  9          158 and rich          
## 10          158 rich with         
## # … with 147,303 more rows
```

---

## **N-grams... and beyond!** 🚀

```r
tidy_ngram %>%
    count(bigram, sort = TRUE)
```

```
## # A tibble: 61,209 x 2
##    bigram       n
##    <chr>    <int>
##  1 to be      586
##  2 of the     529
##  3 it was     430
##  4 in the     416
##  5 i am       384
##  6 she had    320
##  7 she was    312
##  8 it is      281
##  9 had been   277
## 10 i have     267
## # … with 61,199 more rows
```
…
---

## **N-grams... and beyond!** 🚀

```r
bigram_counts
```

```
## # A tibble: 6,502 x 3
##    word1 word2         n
##    <chr> <chr>     <int>
##  1 miss  woodhouse   143
##  2 frank churchill   114
##  3 miss  fairfax      98
##  4 miss  bates        92
##  5 jane  fairfax      88
##  6 miss  smith        47
##  7 john  knightley    44
##  8 miss  taylor       38
##  9 dear  emma         31
## 10 maple grove        28
## # … with 6,492 more rows
```
…
