Text Mining
…
---

<img src="figs/purple_emily.png" style="position:absolute;top:20px;right:20px;" width="100px"/>

## **What do we mean by tidy text?**

```r
library(tidytext)

text_df %>%
* unnest_tokens(word, text)
```

```
## # A tibble: 41 x 2
##     line word   
##    <int> <chr>  
##  1     1 tell   
##  2     1 all    
##  3     1 the    
##  4     1 truth  
##  5     1 but    
##  6     1 tell   
##  7     1 it     
##  8     1 slant  
##  9     2 success
## 10     2 in     
## # … with 31 more rows
```
…
---

## **What are the most common words?**

What do you predict will happen if we run the following code? 🤔

```r
tidy_book %>%
  count(word, sort = TRUE)
```

```
## # A tibble: 6,556 x 2
##    word      n
##    <chr> <int>
##  1 the    4331
##  2 to     4162
##  3 of     3611
##  4 and    3585
##  5 her    2201
##  6 i      2047
##  7 a      1949
##  8 in     1880
##  9 was    1843
## 10 she    1691
## # … with 6,546 more rows
```
…
# **Stop words**

---

# **Stop words**

```r
get_stopwords()
```

```
## # A tibble: 175 x 2
##    word      lexicon 
##    <chr>     <chr>   
##  1 i         snowball
##  2 me        snowball
##  3 my        snowball
##  4 myself    snowball
##  5 we        snowball
##  6 our       snowball
##  7 ours      snowball
##  8 ourselves snowball
##  9 you       snowball
## 10 your      snowball
## # … with 165 more rows
```

---

# **Stop words**

```r
get_stopwords(language = "es")
```

```
## # A tibble: 308 x 2
##    word  lexicon 
##    <chr> <chr>   
##  1 de    snowball
##  2 la    snowball
##  3 que   snowball
##  4 el    snowball
##  5 en    snowball
##  6 y     snowball
##  7 a     snowball
##  8 los   snowball
##  9 del   snowball
## 10 se    snowball
## # … with 298 more rows
```

---

# **Stop words**

```r
get_stopwords(language = "pt")
```

```
## # A tibble: 203 x 2
##    word  lexicon 
##    <chr> <chr>   
##  1 de    snowball
##  2 a     snowball
##  3 o     snowball
##  4 que   snowball
##  5 e     snowball
##  6 do    snowball
##  7 da    snowball
##  8 em    snowball
##  9 um    snowball
## 10 para  snowball
## # … with 193 more rows
```

---

# **Stop words**

```r
get_stopwords(source = "smart")
```

```
## # A tibble: 571 x 2
##    word        lexicon
##    <chr>       <chr>  
##  1 a           smart  
##  2 a's         smart  
##  3 able        smart  
##  4 about       smart  
##  5 above       smart  
##  6 according   smart  
##  7 accordingly smart  
##  8 across      smart  
##  9 actually    smart  
## 10 after       smart  
## # … with 561 more rows
```
…
class: inverse, center, middle

# SENTIMENT ANALYSIS 😄 😢 😠

---

## **Sentiment lexicons**

```r
get_sentiments("afinn")
```

```
## # A tibble: 2,477 x 2
##    word       value
##    <chr>      <dbl>
##  1 abandon       -2
##  2 abandoned     -2
##  3 abandons      -2
##  4 abducted      -2
##  5 abduction     -2
##  6 abductions    -2
##  7 abhor         -3
##  8 abhorred      -3
##  9 abhorrent     -3
## 10 abhors        -3
## # … with 2,467 more rows
```

---

## **Sentiment lexicons**

```r
get_sentiments("bing")
```

```
## # A tibble: 6,786 x 2
##    word        sentiment
##    <chr>       <chr>    
##  1 2-faces     negative 
##  2 abnormal    negative 
##  3 abolish     negative 
##  4 abominable  negative 
##  5 abominably  negative 
##  6 abominate   negative 
##  7 abomination negative 
##  8 abort       negative 
##  9 aborted     negative 
## 10 aborts      negative 
## # … with 6,776 more rows
```

---

## **Sentiment lexicons**

```r
get_sentiments("nrc")
```

```
## # A tibble: 13,901 x 2
##    word        sentiment
##    <chr>       <chr>    
##  1 abacus      trust    
##  2 abandon     fear     
##  3 abandon     negative 
##  4 abandon     sadness  
##  5 abandoned   anger    
##  6 abandoned   fear     
##  7 abandoned   negative 
##  8 abandoned   sadness  
##  9 abandonment anger    
## 10 abandonment fear     
## # … with 13,891 more rows
```

---

## **Sentiment lexicons**

```r
get_sentiments("loughran")
```

```
## # A tibble: 4,150 x 2
##    word         sentiment
##    <chr>        <chr>    
##  1 abandon      negative 
##  2 abandoned    negative 
##  3 abandoning   negative 
##  4 abandonment  negative 
##  5 abandonments negative 
##  6 abandons     negative 
##  7 abdicated    negative 
##  8 abdicates    negative 
##  9 abdicating   negative 
## 10 abdication   negative 
## # … with 4,140 more rows
```
…
---

## **Implementing sentiment analysis**

What do you predict will happen if we run the following code? 🤔

```r
tidy_book %>%
  inner_join(get_sentiments("bing")) %>%            
* count(sentiment, word, sort = TRUE)
```

```
## # A tibble: 1,430 x 3
##   sentiment word       n
##   <chr>     <chr>  <int>
## 1 negative  miss     283
## 2 positive  well     224
## 3 positive  good     200
## 4 positive  great    142
## 5 positive  enough   106
## 6 positive  better    92
## 7 positive  love      92
## # … with 1,423 more rows
```
…
