Text Mining
…
---

## **Exploring the output of topic modeling**

```r
chapter_topics <- tidy(topic_model, matrix = "beta")
chapter_topics
```

```
## # A tibble: 72,496 x 3
##    topic term         beta
##    <int> <chr>       <dbl>
##  1     1 mr      1.81e-  3
##  2     2 mr      1.71e-  4
##  3     3 mr      2.17e-  2
##  4     4 mr      1.55e- 57
##  5     1 harriet 0.       
##  6     2 harriet 0.       
##  7     3 harriet 7.72e-  3
##  8     4 harriet 7.03e-145
##  9     1 brother 8.61e-  5
## 10     2 brother 2.14e- 91
## # … with 72,486 more rows
```
…
---

## **Exploring the output of topic modeling**

```r
top_terms
```

```
## # A tibble: 40 x 3
##    topic term       beta
##    <int> <chr>     <dbl>
##  1     1 time    0.00729
##  2     1 van     0.00621
##  3     1 night   0.00583
##  4     1 helsing 0.00577
##  5     1 back    0.00493
##  6     1 good    0.00484
##  7     1 room    0.00441
##  8     1 lucy    0.00427
##  9     1 dear    0.00420
## 10     1 man     0.00411
## # … with 30 more rows
```
…
---

## **How are documents classified?**

```r
chapters_gamma <- tidy(topic_model, matrix = "gamma",
                       document_names = rownames(words_sparse))
chapters_gamma
```

```
## # A tibble: 728 x 3
##    document                 topic    gamma
##    <chr>                    <int>    <dbl>
##  1 Emma_26                      1 0.000137
##  2 Emma_47                      1 0.000200
##  3 The War of the Worlds_16     1 0.000386
##  4 Emma_38                      1 0.000484
##  5 Emma_8                       1 0.000206
##  6 Emma_21                      1 0.000232
##  7 Emma_13                      1 0.000569
##  8 Dracula_35                   1 0.991   
##  9 Dracula_39                   1 0.999   
## 10 Emma_1                       1 0.000268
## # … with 718 more rows
```
…
